<svg xmlns="http://www.w3.org/2000/svg" xmlns:xlink="http://www.w3.org/1999/xlink" xml:lang="en" id="f329823a11984b27b308f936d2035e81-0" class="displacy" width="1100" height="362.0" direction="ltr" style="max-width: none; height: 362.0px; color: #000000; background: #ffffff; font-family: Arial; direction: ltr">
<text class="displacy-token" fill="currentColor" text-anchor="middle" y="272.0">
    <tspan class="displacy-word" fill="currentColor" x="50">Love</tspan>
    <tspan class="displacy-tag" dy="2em" fill="currentColor" x="50">VERB</tspan>
</text>

<text class="displacy-token" fill="currentColor" text-anchor="middle" y="272.0">
    <tspan class="displacy-word" fill="currentColor" x="200">you</tspan>
    <tspan class="displacy-tag" dy="2em" fill="currentColor" x="200">PRON</tspan>
</text>

<text class="displacy-token" fill="currentColor" text-anchor="middle" y="272.0">
    <tspan class="displacy-word" fill="currentColor" x="350">mak</tspan>
    <tspan class="displacy-tag" dy="2em" fill="currentColor" x="350">INTJ</tspan>
</text>

<text class="displacy-token" fill="currentColor" text-anchor="middle" y="272.0">
    <tspan class="displacy-word" fill="currentColor" x="500">mak</tspan>
    <tspan class="displacy-tag" dy="2em" fill="currentColor" x="500">INTJ</tspan>
</text>

<text class="displacy-token" fill="currentColor" text-anchor="middle" y="272.0">
    <tspan class="displacy-word" fill="currentColor" x="650">ka</tspan>
    <tspan class="displacy-tag" dy="2em" fill="currentColor" x="650">INTJ</tspan>
</text>

<text class="displacy-token" fill="currentColor" text-anchor="middle" y="272.0">
    <tspan class="displacy-word" fill="currentColor" x="800">my</tspan>
    <tspan class="displacy-tag" dy="2em" fill="currentColor" x="800">DET</tspan>
</text>

<text class="displacy-token" fill="currentColor" text-anchor="middle" y="272.0">
    <tspan class="displacy-word" fill="currentColor" x="950">babe</tspan>
    <tspan class="displacy-tag" dy="2em" fill="currentColor" x="950">NOUN</tspan>
</text>

<g class="displacy-arrow">
    <path class="displacy-arc" id="arrow-f329823a11984b27b308f936d2035e81-0-0" stroke-width="2px" d="M62,227.0 62,202.0 194.0,202.0 194.0,227.0" fill="none" stroke="currentColor"/>
    <text dy="1.25em" style="font-size: 0.8em; letter-spacing: 1px">
        <textPath xlink:href="#arrow-f329823a11984b27b308f936d2035e81-0-0" class="displacy-label" startOffset="50%" side="left" fill="currentColor" text-anchor="middle">dobj</textPath>
    </text>
    <path class="displacy-arrowhead" d="M194.0,229.0 L198.0,221.0 190.0,221.0" fill="currentColor"/>
</g>

<g class="displacy-arrow">
    <path class="displacy-arc" id="arrow-f329823a11984b27b308f936d2035e81-0-1" stroke-width="2px" d="M362,227.0 362,202.0 494.0,202.0 494.0,227.0" fill="none" stroke="currentColor"/>
    <text dy="1.25em" style="font-size: 0.8em; letter-spacing: 1px">
        <textPath xlink:href="#arrow-f329823a11984b27b308f936d2035e81-0-1" class="displacy-label" startOffset="50%" side="left" fill="currentColor" text-anchor="middle">compound</textPath>
    </text>
    <path class="displacy-arrowhead" d="M362,229.0 L358,221.0 366,221.0" fill="currentColor"/>
</g>

<g class="displacy-arrow">
    <path class="displacy-arc" id="arrow-f329823a11984b27b308f936d2035e81-0-2" stroke-width="2px" d="M62,227.0 62,152.0 500.0,152.0 500.0,227.0" fill="none" stroke="currentColor"/>
    <text dy="1.25em" style="font-size: 0.8em; letter-spacing: 1px">
        <textPath xlink:href="#arrow-f329823a11984b27b308f936d2035e81-0-2" class="displacy-label" startOffset="50%" side="left" fill="currentColor" text-anchor="middle">dobj</textPath>
    </text>
    <path class="displacy-arrowhead" d="M500.0,229.0 L504.0,221.0 496.0,221.0" fill="currentColor"/>
</g>

<g class="displacy-arrow">
    <path class="displacy-arc" id="arrow-f329823a11984b27b308f936d2035e81-0-3" stroke-width="2px" d="M812,227.0 812,202.0 944.0,202.0 944.0,227.0" fill="none" stroke="currentColor"/>
    <text dy="1.25em" style="font-size: 0.8em; letter-spacing: 1px">
        <textPath xlink:href="#arrow-f329823a11984b27b308f936d2035e81-0-3" class="displacy-label" startOffset="50%" side="left" fill="currentColor" text-anchor="middle">poss</textPath>
    </text>
    <path class="displacy-arrowhead" d="M812,229.0 L808,221.0 816,221.0" fill="currentColor"/>
</g>

<g class="displacy-arrow">
    <path class="displacy-arc" id="arrow-f329823a11984b27b308f936d2035e81-0-4" stroke-width="2px" d="M662,227.0 662,177.0 947.0,177.0 947.0,227.0" fill="none" stroke="currentColor"/>
    <text dy="1.25em" style="font-size: 0.8em; letter-spacing: 1px">
        <textPath xlink:href="#arrow-f329823a11984b27b308f936d2035e81-0-4" class="displacy-label" startOffset="50%" side="left" fill="currentColor" text-anchor="middle">dobj</textPath>
    </text>
    <path class="displacy-arrowhead" d="M947.0,229.0 L951.0,221.0 943.0,221.0" fill="currentColor"/>
</g>
</svg>